;このリストファイル内に記述されているDATファイルは
;「メニュー」→「ファイル」→「オリジナルDATパスの指定」
;で指定されたパスを基準としてロードされます。
;なにも指定していない場合はFFXIのROMフォルダを読みにいきます。
;
;注意：シフトJISで保存してください

[Face]


[Head]


[Body]


[Hands]


[Legs]


[Feet]


[Main]


[Sub]


[Range]

